<?xml version="1.0" encoding="UTF-8" standalone="no"?>
<svg
   xmlns:dc="http://purl.org/dc/elements/1.1/"
   xmlns:cc="http://creativecommons.org/ns#"
   xmlns:rdf="http://www.w3.org/1999/02/22-rdf-syntax-ns#"
   xmlns:svg="http://www.w3.org/2000/svg"
   xmlns="http://www.w3.org/2000/svg"
   xmlns:sodipodi="http://sodipodi.sourceforge.net/DTD/sodipodi-0.dtd"
   xmlns:inkscape="http://www.inkscape.org/namespaces/inkscape"
   version="1.1"
   width="750"
   height="660"
   id="svg201"
   sodipodi:docname="Ap_dependence.svg"
   inkscape:version="0.92.3 (2405546, 2018-03-11)">
  <metadata
     id="metadata205">
    <rdf:RDF>
      <cc:Work
         rdf:about="">
        <dc:format>image/svg+xml</dc:format>
        <dc:type
           rdf:resource="http://purl.org/dc/dcmitype/StillImage" />
        <dc:title></dc:title>
      </cc:Work>
    </rdf:RDF>
  </metadata>
  <sodipodi:namedview
     pagecolor="#ffffff"
     bordercolor="#666666"
     borderopacity="1"
     objecttolerance="10"
     gridtolerance="10"
     guidetolerance="10"
     inkscape:pageopacity="0"
     inkscape:pageshadow="2"
     inkscape:window-width="1366"
     inkscape:window-height="713"
     id="namedview203"
     showgrid="false"
     inkscape:zoom="0.69832031"
     inkscape:cx="744.49573"
     inkscape:cy="315.51155"
     inkscape:window-x="0"
     inkscape:window-y="27"
     inkscape:window-maximized="1"
     inkscape:current-layer="svg201" />
  <defs
     id="defs2" />
  <g
     transform="matrix(2,0,0,2,-53.848297,-13.703977)"
     id="g199">
    <g
       id="background-004dd798">
      <rect
         x="0"
         y="0"
         width="400"
         height="400"
         class="dcg-svg-background"
         id="rect4"
         style="fill:#ffffff;stroke:none" />
    </g>
    <g
       id="background-images-004dd798" />
    <g
       id="graphpaper-004dd798">
      <g
         id="axis-004dd798">
        <g
           id="yaxis-004dd798">
          <title
             id="title8">Y axis</title>
          <path
             class="dcg-svg-axis-line"
             d="M 51,0 V 400"
             stroke-miterlimit="10"
             id="path10"
             inkscape:connector-curvature="0"
             style="fill:none;stroke:#000000;stroke-width:1.5;stroke-miterlimit:10;stroke-dasharray:none;stroke-opacity:0.9;paint-order:fill stroke markers" />
        </g>
        <g
           id="xaxis-004dd798">
          <title
             id="title13">p</title>
          <path
             class="dcg-svg-axis-line"
             d="M 0,296 H 400"
             stroke-miterlimit="10"
             id="path15"
             inkscape:connector-curvature="0"
             style="fill:none;stroke:#000000;stroke-width:1.5;stroke-miterlimit:10;stroke-dasharray:none;stroke-opacity:0.9;paint-order:fill stroke markers" />
        </g>
        <g
           id="g52">
          <g
             class="dcg-svg-axis-value"
             id="g22">
            <text
               font-size="14px"
               font-style="normal"
               font-weight="normal"
               text-decoration="normal"
               x="42.398209"
               y="311.60828"
               stroke-miterlimit="2"
               id="text18"
               style="font-style:normal;font-weight:normal;font-size:14px;font-family:Arial;text-anchor:middle;fill:none;stroke:#ffffff;stroke-width:3;stroke-miterlimit:2;stroke-dasharray:none">0</text>
            <text
               font-size="14px"
               font-style="normal"
               font-weight="normal"
               text-decoration="normal"
               x="42.398209"
               y="311.60828"
               id="text20"
               style="font-style:normal;font-weight:normal;font-size:14px;font-family:Arial;text-anchor:middle;fill:#000000;stroke:none">0</text>
          </g>
          <g
             id="g26">
            <path
               class="dcg-svg-tickmark"
               d="m 188,293 v 6 m 136,-6 v 6 M 48,160 h 6 M 48,23 h 6"
               stroke-miterlimit="2"
               id="path24"
               inkscape:connector-curvature="0"
               style="fill:none;stroke:#000000;stroke-width:1.5;stroke-miterlimit:2;stroke-dasharray:none;stroke-opacity:0.9;paint-order:fill stroke markers" />
          </g>
          <g
             class="dcg-svg-axis-value"
             id="g32">
            <text
               font-size="14px"
               font-style="normal"
               font-weight="normal"
               text-decoration="normal"
               x="187.5125"
               y="311.60828"
               stroke-miterlimit="2"
               id="text28"
               style="font-style:normal;font-weight:normal;font-size:14px;font-family:Arial;text-anchor:middle;fill:none;stroke:#ffffff;stroke-width:3;stroke-miterlimit:2;stroke-dasharray:none">5</text>
            <text
               font-size="14px"
               font-style="normal"
               font-weight="normal"
               text-decoration="normal"
               x="187.5125"
               y="311.60828"
               id="text30"
               style="font-style:normal;font-weight:normal;font-size:14px;font-family:Arial;text-anchor:middle;fill:#000000;stroke:none">5</text>
          </g>
          <g
             class="dcg-svg-axis-value"
             id="g38">
            <text
               font-size="14px"
               font-style="normal"
               font-weight="normal"
               text-decoration="normal"
               x="323.73373"
               y="311.60828"
               stroke-miterlimit="2"
               id="text34"
               style="font-style:normal;font-weight:normal;font-size:14px;font-family:Arial;text-anchor:middle;fill:none;stroke:#ffffff;stroke-width:3;stroke-miterlimit:2;stroke-dasharray:none">10</text>
            <text
               font-size="14px"
               font-style="normal"
               font-weight="normal"
               text-decoration="normal"
               x="323.73373"
               y="311.60828"
               id="text36"
               style="font-style:normal;font-weight:normal;font-size:14px;font-family:Arial;text-anchor:middle;fill:#000000;stroke:none">10</text>
          </g>
          <g
             class="dcg-svg-axis-value"
             id="g44">
            <text
               font-size="14px"
               font-style="normal"
               font-weight="normal"
               text-decoration="normal"
               x="42.398209"
               y="163.38705"
               stroke-miterlimit="2"
               id="text40"
               style="font-style:normal;font-weight:normal;font-size:14px;font-family:Arial;text-anchor:middle;fill:none;stroke:#ffffff;stroke-width:3;stroke-miterlimit:2;stroke-dasharray:none">5</text>
            <text
               font-size="14px"
               font-style="normal"
               font-weight="normal"
               text-decoration="normal"
               x="42.398209"
               y="163.38705"
               id="text42"
               style="font-style:normal;font-weight:normal;font-size:14px;font-family:Arial;text-anchor:middle;fill:#000000;stroke:none">5</text>
          </g>
          <g
             class="dcg-svg-axis-value"
             id="g50">
            <text
               font-size="14px"
               font-style="normal"
               font-weight="normal"
               text-decoration="normal"
               x="38.505142"
               y="27.165833"
               stroke-miterlimit="2"
               id="text46"
               style="font-style:normal;font-weight:normal;font-size:14px;font-family:Arial;text-anchor:middle;fill:none;stroke:#ffffff;stroke-width:3;stroke-miterlimit:2;stroke-dasharray:none">10</text>
            <text
               font-size="14px"
               font-style="normal"
               font-weight="normal"
               text-decoration="normal"
               x="38.505142"
               y="27.165833"
               id="text48"
               style="font-style:normal;font-weight:normal;font-size:14px;font-family:Arial;text-anchor:middle;fill:#000000;stroke:none">10</text>
          </g>
        </g>
        <g
           class="dcg-svg-axis-label"
           id="g58">
          <text
             font-size="20px"
             font-style="italic"
             font-weight="normal"
             text-decoration="normal"
             x="375"
             y="328.80029"
             stroke-miterlimit="2"
             id="text54"
             style="font-style:italic;font-weight:normal;font-size:20px;font-family:Times;text-anchor:start;fill:none;stroke:#ffffff;stroke-width:3;stroke-miterlimit:2;stroke-dasharray:none">p</text>
          <text
             font-size="20px"
             font-style="italic"
             font-weight="normal"
             text-decoration="normal"
             x="375"
             y="328.80029"
             id="text56"
             style="font-style:italic;font-weight:normal;font-size:20px;font-family:Times;text-anchor:start;fill:#000000;stroke:none">p</text>
        </g>
      </g>
    </g>
    <g
       id="expressions-004dd798">
      <g
         id="sketch-004dd798">
        <title
           id="title62">Expression 1</title>
        <path
           d=""
           id="path64"
           inkscape:connector-curvature="0"
           style="fill:#000000;fill-opacity:0.4;stroke:none;paint-order:stroke fill markers" />
        <g
           id="g68">
          <path
             class="dcg-svg-curve"
             d="m 80.774763,-3 v 0 l 0.580865,47.494305 0.585902,33.53426 0.683551,28.301965 0.683551,20.96442 0.781202,18.16272 0.781202,14.01124 0.878852,12.37068 0.878851,9.84032 0.976503,8.81389 1.074152,7.82738 1.074152,6.39236 1.171803,5.75841 1.171802,4.79868 1.269453,4.37076 1.367103,3.96377 1.464753,3.58475 1.562403,3.23692 1.660053,2.92099 1.757704,2.63607 1.953,2.49589 2.14831,2.33217 2.44125,2.24047 2.73421,2.10874 3.12481,2.01274 3.41775,1.83176 3.80836,1.69627 4.19896,1.5514 4.68721,1.4339 5.37076,1.35322 6.15196,1.26736 7.12847,1.19114 8.39792,1.12644 9.86267,1.05016 11.81567,0.98642 14.25693,0.91953 17.47939,0.85658 21.776,0.79492 27.4397,0.72982 35.34938,0.66775 46.57915,0.60607 58.19952,0.51043"
             stroke-miterlimit="10"
             id="path66"
             inkscape:connector-curvature="0"
             style="fill:none;stroke:#000000;stroke-width:2.5;stroke-linecap:round;stroke-linejoin:round;stroke-miterlimit:10;stroke-dasharray:none;stroke-opacity:0.7;paint-order:fill stroke markers" />
        </g>
      </g>
      <g
         id="g75">
        <title
           id="title71">p=2</title>
        <path
           class="dcg-svg-point"
           d="m 105.17977,240.71179 v 0.2 h 0.2 v -0.2"
           stroke-miterlimit="10"
           id="path73"
           inkscape:connector-curvature="0"
           style="fill:none;stroke:#2d70b3;stroke-width:7.5;stroke-linecap:round;stroke-linejoin:round;stroke-miterlimit:10;stroke-dasharray:none;stroke-opacity:0.9;paint-order:fill stroke markers" />
      </g>
      <g
         id="g81">
        <title
           id="title77">p=3</title>
        <path
           class="dcg-svg-point"
           d="m 132.42401,254.33391 v 0.2 h 0.2 v -0.2"
           stroke-miterlimit="10"
           id="path79"
           inkscape:connector-curvature="0"
           style="fill:none;stroke:#c74440;stroke-width:7.5;stroke-linecap:round;stroke-linejoin:round;stroke-miterlimit:10;stroke-dasharray:none;stroke-opacity:0.9;paint-order:fill stroke markers" />
      </g>
      <g
         id="g85">
        <title
           id="title83">y=p</title>
      </g>
      <g
         id="g89">
        <title
           id="title87">y=p/2</title>
      </g>
      <g
         id="g93">
        <title
           id="title91">y=p'</title>
      </g>
      <g
         id="g103">
        <title
           id="title95">Expression 7</title>
        <path
           d=""
           id="path97"
           inkscape:connector-curvature="0"
           style="fill:#2d70b3;fill-opacity:0.4;stroke:none;paint-order:stroke fill markers" />
        <g
           id="g101">
          <path
             class="dcg-svg-curve"
             d="m 80.774767,-3 v 0 l 0.580842,47.492969 0.585897,33.53446 0.683548,28.302131 0.683547,20.96454 0.781197,18.16283 0.781197,14.01133 0.878847,12.37076 0.878846,9.84038 0.976496,8.81394 1.074146,7.82743 1.074146,6.3924 1.171796,5.75844 1.171795,4.7987 1.269445,4.37079 1.367095,3.9638 1.464744,3.58477 1.562394,3.23694 1.660044,2.921 1.757691,2.63609 1.95299,2.4959 2.13853,2.32242"
             stroke-miterlimit="10"
             id="path99"
             inkscape:connector-curvature="0"
             style="fill:none;stroke:#2d70b3;stroke-width:2.5;stroke-linecap:round;stroke-linejoin:round;stroke-miterlimit:10;stroke-dasharray:none;stroke-opacity:0.7;paint-order:fill stroke markers" />
        </g>
      </g>
      <g
         id="g113">
        <title
           id="title105">Expression 8</title>
        <path
           d=""
           id="path107"
           inkscape:connector-curvature="0"
           style="fill:#2d70b3;fill-opacity:0.4;stroke:none;paint-order:stroke fill markers" />
        <g
           id="g111">
          <path
             class="dcg-svg-curve"
             d="m 105.27977,240.81179 v 0 L 349.09156,-3"
             stroke-miterlimit="10"
             id="path109"
             inkscape:connector-curvature="0"
             style="fill:none;stroke:#2d70b3;stroke-width:2.5;stroke-linecap:round;stroke-linejoin:round;stroke-miterlimit:10;stroke-dasharray:none;stroke-opacity:0.7;paint-order:fill stroke markers" />
        </g>
      </g>
      <g
         id="g123">
        <title
           id="title115">Expression 9</title>
        <path
           d=""
           id="path117"
           inkscape:connector-curvature="0"
           style="fill:#2d70b3;fill-opacity:0.4;stroke:none;paint-order:stroke fill markers" />
        <g
           id="g121">
          <path
             class="dcg-svg-curve"
             d="m 50.791277,295.30028 7.778174,-7.77817 m 4.949748,-4.94975 7.778174,-7.77818 m 4.949748,-4.94974 7.778174,-7.77818 m 4.949748,-4.94975 7.778174,-7.77817 m 4.949743,-4.94975 3.57681,-3.5768"
             stroke-miterlimit="10"
             id="path119"
             inkscape:connector-curvature="0"
             style="fill:none;stroke:#2d70b3;stroke-width:2.5;stroke-linecap:round;stroke-linejoin:round;stroke-miterlimit:10;stroke-dasharray:none;stroke-opacity:0.7;paint-order:fill stroke markers" />
        </g>
      </g>
      <g
         id="g133">
        <title
           id="title125">Expression 10</title>
        <path
           d=""
           id="path127"
           inkscape:connector-curvature="0"
           style="fill:#c74440;fill-opacity:0.4;stroke:none;paint-order:stroke fill markers" />
        <g
           id="g131">
          <path
             class="dcg-svg-curve"
             d="m 80.774767,-3 v 0 l 0.580842,47.492969 0.585897,33.53446 0.683548,28.302131 0.683547,20.96454 0.781197,18.16283 0.781197,14.01133 0.878847,12.37076 0.878846,9.84038 0.976496,8.81394 1.074146,7.82743 1.074146,6.3924 1.171796,5.75844 1.171795,4.7987 1.269445,4.37079 1.367095,3.9638 1.464744,3.58477 1.562394,3.23694 1.660044,2.921 1.757691,2.63609 1.95299,2.4959 2.1483,2.33219 2.44124,2.24048 2.73419,2.10875 3.12478,2.01275 3.41774,1.83178 3.80834,1.69627 4.19893,1.55142 4.68718,1.4339 2.82208,0.74433"
             stroke-miterlimit="10"
             id="path129"
             inkscape:connector-curvature="0"
             style="fill:none;stroke:#c74440;stroke-width:2.5;stroke-linecap:round;stroke-linejoin:round;stroke-miterlimit:10;stroke-dasharray:none;stroke-opacity:0.7;paint-order:fill stroke markers" />
        </g>
      </g>
      <g
         id="g143">
        <title
           id="title135">Expression 11</title>
        <path
           d=""
           id="path137"
           inkscape:connector-curvature="0"
           style="fill:#c74440;fill-opacity:0.4;stroke:none;paint-order:stroke fill markers" />
        <g
           id="g141">
          <path
             class="dcg-svg-curve"
             d="m 132.52401,254.43391 v 0 L 399.5,120.94592"
             stroke-miterlimit="10"
             id="path139"
             inkscape:connector-curvature="0"
             style="fill:none;stroke:#c74440;stroke-width:2.5;stroke-linecap:round;stroke-linejoin:round;stroke-miterlimit:10;stroke-dasharray:none;stroke-opacity:0.7;paint-order:fill stroke markers" />
        </g>
      </g>
      <g
         id="g153">
        <title
           id="title145">Expression 12</title>
        <path
           d=""
           id="path147"
           inkscape:connector-curvature="0"
           style="fill:#c74440;fill-opacity:0.4;stroke:none;paint-order:stroke fill markers" />
        <g
           id="g151">
          <path
             class="dcg-svg-curve"
             d="m 50.791277,295.30028 9.838699,-4.91935 m 6.26099,-3.13049 9.838699,-4.91935 m 6.260991,-3.1305 9.838699,-4.91935 m 6.26099,-3.13049 9.838695,-4.91935 m 6.26099,-3.1305 9.8387,-4.91935 m 6.26099,-3.13049 1.23429,-0.61715"
             stroke-miterlimit="10"
             id="path149"
             inkscape:connector-curvature="0"
             style="fill:none;stroke:#c74440;stroke-width:2.5;stroke-linecap:round;stroke-linejoin:round;stroke-miterlimit:10;stroke-dasharray:none;stroke-opacity:0.7;paint-order:fill stroke markers" />
        </g>
      </g>
    </g>
    <g
       id="labels-004dd798">
      <g
         class="dcg-svg-label"
         id="g168">
        <g
           transform="translate(222.5,233.15625)"
           id="g160">
          <g
             id="g158">
            <text
               font-size="21px"
               font-style="normal"
               font-weight="normal"
               text-decoration="normal"
               x="0"
               y="18.212"
               stroke-miterlimit="2"
               id="text156"
               style="font-style:normal;font-weight:normal;font-size:21px;font-family:arial, sans-serif;text-anchor:start;fill:none;stroke:#ffffff;stroke-width:3;stroke-linecap:round;stroke-linejoin:round;stroke-miterlimit:2;stroke-dasharray:none">y=p'</text>
          </g>
        </g>
        <g
           transform="translate(222.5,233.15625)"
           id="g166">
          <g
             id="g164">
            <text
               font-size="21px"
               font-style="normal"
               font-weight="normal"
               text-decoration="normal"
               x="0"
               y="18.212"
               id="text162"
               style="font-style:normal;font-weight:normal;font-size:21px;font-family:arial, sans-serif;text-anchor:start;fill:#4d4d4d;stroke:none">y=p'</text>
          </g>
        </g>
      </g>
      <g
         class="dcg-svg-label"
         id="g182">
        <g
           transform="translate(170.54687,188.75)"
           id="g174">
          <g
             id="g172">
            <text
               font-size="21px"
               font-style="normal"
               font-weight="normal"
               text-decoration="normal"
               x="0"
               y="18.212"
               stroke-miterlimit="2"
               id="text170"
               style="font-style:normal;font-weight:normal;font-size:21px;font-family:arial, sans-serif;text-anchor:start;fill:none;stroke:#ffffff;stroke-width:3;stroke-linecap:round;stroke-linejoin:round;stroke-miterlimit:2;stroke-dasharray:none">y=p/2</text>
          </g>
        </g>
        <g
           transform="translate(170.54687,188.75)"
           id="g180">
          <g
             id="g178">
            <text
               font-size="21px"
               font-style="normal"
               font-weight="normal"
               text-decoration="normal"
               x="0"
               y="18.212"
               id="text176"
               style="font-style:normal;font-weight:normal;font-size:21px;font-family:arial, sans-serif;text-anchor:start;fill:#d87c79;stroke:none">y=p/2</text>
          </g>
        </g>
      </g>
      <g
         class="dcg-svg-label"
         id="g196">
        <g
           transform="translate(142.76562,151.42187)"
           id="g188">
          <g
             id="g186">
            <text
               font-size="21px"
               font-style="normal"
               font-weight="normal"
               text-decoration="normal"
               x="0"
               y="18.212"
               stroke-miterlimit="2"
               id="text184"
               style="font-style:normal;font-weight:normal;font-size:21px;font-family:arial, sans-serif;text-anchor:start;fill:none;stroke:#ffffff;stroke-width:3;stroke-linecap:round;stroke-linejoin:round;stroke-miterlimit:2;stroke-dasharray:none">y=p</text>
          </g>
        </g>
        <g
           transform="translate(142.76562,151.42187)"
           id="g194">
          <g
             id="g192">
            <text
               font-size="21px"
               font-style="normal"
               font-weight="normal"
               text-decoration="normal"
               x="0"
               y="18.212"
               id="text190"
               style="font-style:normal;font-weight:normal;font-size:21px;font-family:arial, sans-serif;text-anchor:start;fill:#6c9bca;stroke:none">y=p</text>
          </g>
        </g>
      </g>
    </g>
  </g>
</svg>
